"Date","Region","Customer / Invoice Details","Division","Amount","Days Overdue","Regional Risk Indicator","Global Risk Indicator"
2016-06-30,"Canada","Walmart Canada Inc. / Note #8573","Children’s Books",23939,27,40,20
2016-06-30,"Canada","The Hudson Bay Company / Note #281711","Science Fiction",5378,14,40,20
2016-06-30,"Canada","Walmart Canada Inc. / Note #1922","Children’s Books",20929,5,40,20
2016-06-30,"Canada","Walmart Canada Inc. / Note #85421","Children’s Books",7000,3,40,20
2016-06-30,"Europe","Thalia Bücher GmbH / Note #224146","Education",4056,83,30,20
2016-06-30,"Europe","Thalia Bücher GmbH / Note #286270","Science Fiction",7500,77,30,20
2016-06-30,"Europe","Dufry AG / Note #58026","Children’s Books",15337,54,30,20
2016-06-30,"Europe","Dufry AG / Note #92218","Science Fiction",500,54,30,20
2016-06-30,"Europe","Dufry AG / Note #58150","Science Fiction",31674,23,30,20
2016-06-30,"Europe","Dufry AG / Note #141613","Education",35634,7,30,20
2016-06-30,"Europe","Thalia Bücher GmbH / Note #95732","Education",14000,6,30,20
2016-06-30,"Europe","Thalia Bücher GmbH / Note #184374","Science Fiction",5000,3,30,20
2016-06-30,"Europe","Thalia Bücher GmbH / Note #94857","Science Fiction",4111,1,30,20
2016-06-30,"Rest of World","Asian Distribution Network Pty / Note #89783","Children’s Books",723,91,10,20
2016-06-30,"Rest of World","Asian Distribution Network Pty / Note #280284","Education",3847,47,10,20
2016-06-30,"Rest of World","Asian Distribution Network Pty / Note #209751","Education",3298,28,10,20
2016-06-30,"Rest of World","Asian Distribution Network Pty / Note #121809","Education",842,11,10,20
2016-06-30,"Rest of World","Asian Distribution Network Pty / Note #133041","Science Fiction",485,9,10,20
2016-06-30,"Rest of World","Asian Distribution Network Pty / Note #186203","Science Fiction",11028,7,10,20
2016-06-30,"Rest of World","Asian Distribution Network Pty / Note #362448","Children’s Books",3843,5,10,20
2016-06-30,"Rest of World","Asian Distribution Network Pty / Note #297847","Science Fiction",14732,3,10,20
2016-06-30,"United States","The Coop / Note #127364","Education",14592,117,20,20
2016-06-30,"United States","Powell’s Books Inc. / Note #72161","Education",2969,103,20,20
2016-06-30,"United States","New York Public Schools / Note #33321","Education",583,102,20,20
2016-06-30,"United States","Amazon Inc. / Note #95855","Children’s Books",38045,99,20,20
2016-06-30,"United States","New York Public Schools / Note #93711","Education",1272,95,20,20
2016-06-30,"United States","New York Public Schools / Note #47313","Education",1012,93,20,20
2016-06-30,"United States","Amazon Inc. / Note #79482","Science Fiction",9483,81,20,20
2016-06-30,"United States","California Public Schools / Note #28222","Education",6593,77,20,20
2016-06-30,"United States","Amazon Inc. / Note #94843","Science Fiction",17293,74,20,20
2016-06-30,"United States","Amazon Inc. / Note #28173","Education",38472,72,20,20
2016-06-30,"United States","California Public Schools / Note #23837","Education",5000,71,20,20
2016-06-30,"United States","Amazon Inc. / Note #29283","Children’s Books",57592,69,20,20
2016-06-30,"United States","Independent Booksellers Inc. / Note #32928","Children’s Books",55335,63,20,20
2016-06-30,"United States","California Public Schools / Note #11723","Education",5938,63,20,20
2016-06-30,"United States","The Coop / Note #857422","Education",1000,54,20,20
2016-06-30,"United States","Powell’s Books Inc. / Note #67811","Science Fiction",15500,54,20,20
2016-06-30,"United States","The Coop / Note #138373","Education",18456,45,20,20
2016-06-30,"United States","Powell’s Books Inc. / Note #57376","Science Fiction",8254,43,20,20
2016-06-30,"United States","The Coop / Note #183711","Children’s Books",14592,22,20,20
2016-06-30,"United States","Powell’s Books Inc. / Note #93833","Children’s Books",23754,17,20,20
2016-06-30,"United States","Barnes and Noble Inc. / Note #53827","Children’s Books",78,9,20,20
2016-06-30,"United States","Barnes and Noble Inc. / Note #19282","Science Fiction",12819,8,20,20
2016-06-30,"United States","The Coop / Note #384571","Education",19184,8,20,20
2016-06-30,"United States","Barnes and Noble Inc. / Note #35837","Science Fiction",38472,6,20,20
2016-06-30,"United States","Barnes and Noble Inc. / Note #68473","Children’s Books",10484,5,20,20
2016-06-30,"United States","The Coop / Note #484721","Education",10000,5,20,20
2016-06-30,"United States","Independent Booksellers Inc. / Note #28271","Science Fiction",18473,4,20,20
2016-06-30,"United States","Independent Booksellers Inc. / Note #78494","Science Fiction",22494,3,20,20
2016-06-30,"United States","Independent Booksellers Inc. / Note #14948","Children’s Books",54812,2,20,20
2016-12-31,"Europe","Thalia Bücher GmbH / Note #224205","Children’s Books",5400,70,35,20
2016-12-31,"Europe","Thalia Bücher GmbH / Note #127879","Science Fiction",3061,57,35,20
2016-12-31,"Europe","Thalia Bücher GmbH / Note #139062","Children’s Books",14600,34,35,20
2016-12-31,"Europe","Thalia Bücher GmbH / Note #252004","Science Fiction",7600,31,35,20
2016-12-31,"Europe","Dufry AG / Note #130085","Children’s Books",3753,23,35,20
2016-12-31,"Europe","Dufry AG / Note #232966","Children’s Books",3722,19,35,20
2016-12-31,"Europe","Dufry AG / Note #279559","Science Fiction",798,17,35,20
2016-12-31,"Europe","Dufry AG / Note #304652","Science Fiction",11583,12,35,20
2016-12-31,"Europe","Thalia Bücher GmbH / Note #285375","Education",19163,4,35,20
2016-12-31,"Rest of World","Asian Distribution Network Pty / Note #368278","Education",373,49,10,20
2016-12-31,"Rest of World","Asian Distribution Network Pty / Note #111688","Science Fiction",9583,29,10,20
2016-12-31,"Rest of World","Asian Distribution Network Pty / Note #156087","Science Fiction",2193,5,10,20
2016-12-31,"United States","California Public Schools / Note #92285","Education",5860,121,15,20
2016-12-31,"United States","Powell’s Books Inc. / Note #193940","Children’s Books",5921,114,15,20
2016-12-31,"United States","New York Public Schools / Note #212302","Education",17803,83,15,20
2016-12-31,"United States","Barnes and Noble Inc. / Note #284001","Science Fiction",14000,73,15,20
2016-12-31,"United States","Barnes and Noble Inc. / Note #148439","Education",16238,67,15,20
2016-12-31,"United States","Barnes and Noble Inc. / Note #347247","Children’s Books",21000,57,15,20
2016-12-31,"United States","Barnes and Noble Inc. / Note #65135","Science Fiction",16000,53,15,20
2016-12-31,"United States","Amazon Inc. / Note #215936","Science Fiction",21382,28,15,20
2016-12-31,"United States","Amazon Inc. / Note #347184","Education",4729,27,15,20
2016-12-31,"United States","Amazon Inc. / Note #222793","Children’s Books",15000,25,15,20
2016-12-31,"United States","Amazon Inc. / Note #24632","Education",3985,25,15,20
2016-12-31,"United States","Amazon Inc. / Note #175954","Children’s Books",3738,24,15,20
2016-12-31,"United States","Amazon Inc. / Note #326569","Science Fiction",500,22,15,20
2016-12-31,"United States","Powell’s Books Inc. / Note #27605","Education",4082,22,15,20
2016-12-31,"United States","Amazon Inc. / Note #265545","Science Fiction",8472,21,15,20
2016-12-31,"United States","Amazon Inc. / Note #357142","Science Fiction",3937,19,15,20
2016-12-31,"United States","Amazon Inc. / Note #254092","Children’s Books",14937,19,15,20
2016-12-31,"United States","Amazon Inc. / Note #339884","Education",249,17,15,20
2016-12-31,"United States","Powell’s Books Inc. / Note #386555","Science Fiction",19600,16,15,20
2016-12-31,"United States","The Coop / Note #46646","Education",29009,13,15,20
2016-12-31,"United States","Barnes and Noble Inc. / Note #181559","Children’s Books",27000,8,15,20
2016-12-31,"United States","Independent Booksellers Inc. / Note #250262","Children’s Books",8498,8,15,20
2016-12-31,"United States","Powell’s Books Inc. / Note #148618","Children’s Books",7500,6,15,20
2016-12-31,"United States","Barnes and Noble Inc. / Note #385935","Science Fiction",23429,5,15,20
2016-12-31,"United States","Independent Booksellers Inc. / Note #38088","Science Fiction",12375,5,15,20
2016-12-31,"United States","New York Public Schools / Note #316484","Education",17700,5,15,20
2016-12-31,"United States","Powell’s Books Inc. / Note #41711","Science Fiction",14563,3,15,20
2016-12-31,"United States","New York Public Schools / Note #222306","Education",3071,3,15,20
2016-12-31,"United States","The Coop / Note #390112","Education",12260,2,15,20
2016-12-31,"United States","Independent Booksellers Inc. / Note #115415","Children’s Books",19744,1,15,20
2016-12-31,"United States","Independent Booksellers Inc. / Note #362558","Science Fiction",29037,1,15,20
2016-12-31,"United States","The Coop / Note #158370","Education",21583,1,15,20
2016-12-31,"United States","Powell’s Books Inc. / Note #41900","Children’s Books",10500,1,15,20
2016-12-31,"United States","Walmart Inc. / Note #323834","Children’s Books",35551,1,15,20
