Date,Warehouse,PP&E,Personnel,Shrinkage,Transport
2012-12-31,"Portland, OR",0.45,0.98,0.21,1.59
2012-12-31,"Phoenix, AZ",0.33,0.78,0.15,1.58
2012-12-31,"Petersburg, VA",0.35,0.69,0.29,1.63
2012-12-31,"Kansas City, KS",0.29,0.62,0.45,1.38
2012-12-31,"Altamonte Springs, FL",0.71,0.89,0.21,1.85
2012-12-31,"Mississauga,ON",0.55,0.86,0.11,2.98
2012-12-31,"Strasbourg, France",0.47,1.42,0.09,2.21
2013-12-31,"Portland, OR",0.46,0.98,0.21,1.60
2013-12-31,"Phoenix, AZ",0.33,0.77,0.15,1.57
2013-12-31,"Petersburg, VA",0.35,0.70,0.29,1.63
2013-12-31,"Kansas City, KS",0.29,0.61,0.45,1.36
2013-12-31,"Altamonte Springs, FL",0.70,0.91,0.21,1.81
2013-12-31,"Mississauga,ON",0.56,0.87,0.11,3.03
2013-12-31,"Strasbourg, France",0.47,1.44,0.09,2.21
2014-12-31,"Portland, OR",0.46,0.97,0.21,1.60
2014-12-31,"Phoenix, AZ",0.33,0.76,0.15,1.59
2014-12-31,"Petersburg, VA",0.35,0.71,0.29,1.60
2014-12-31,"Kansas City, KS",0.29,0.61,0.45,1.39
2014-12-31,"Altamonte Springs, FL",0.70,0.93,0.21,1.79
2014-12-31,"Mississauga,ON",0.56,0.86,0.11,3.01
2014-12-31,"Strasbourg, France",0.47,1.45,0.09,2.18
2015-12-31,"Portland, OR",0.46,0.96,0.21,1.61
2015-12-31,"Phoenix, AZ",0.33,0.76,0.15,1.62
2015-12-31,"Petersburg, VA",0.35,0.72,1.32,1.58
2015-12-31,"Kansas City, KS",0.29,0.61,0.44,1.40
2015-12-31,"Altamonte Springs, FL",0.69,0.94,0.21,1.80
2015-12-31,"Mississauga,ON",0.55,0.87,0.11,2.97
2015-12-31,"Strasbourg, France",0.47,1.42,0.09,2.18
2016-12-31,"Portland, OR",0.47,0.96,0.21,1.59
2016-12-31,"Phoenix, AZ",0.34,0.76,0.15,1.61
2016-12-31,"Petersburg, VA",0.35,0.72,0.30,1.56
2016-12-31,"Kansas City, KS",0.29,0.62,0.44,1.39
2016-12-31,"Altamonte Springs, FL",0.67,0.95,0.21,1.79
2016-12-31,"Mississauga,ON",0.56,0.87,0.11,2.94
2016-12-31,"Strasbourg, France",0.47,1.42,0.09,2.18
